%!PS-Adobe-3.0 EPSF-3.0
%%Creator: cairo 1.10.2 (http://cairographics.org)
%%CreationDate: Wed Jul  6 19:22:51 2011
%%Pages: 1
%%BoundingBox: 0 -1 282 165
%%DocumentData: Clean7Bit
%%LanguageLevel: 2
%%EndComments
%%BeginProlog
/cairo_eps_state save def
/dict_count countdictstack def
/op_count count 1 sub def
userdict begin
/q { gsave } bind def
/Q { grestore } bind def
/cm { 6 array astore concat } bind def
/w { setlinewidth } bind def
/J { setlinecap } bind def
/j { setlinejoin } bind def
/M { setmiterlimit } bind def
/d { setdash } bind def
/m { moveto } bind def
/l { lineto } bind def
/c { curveto } bind def
/h { closepath } bind def
/re { exch dup neg 3 1 roll 5 3 roll moveto 0 rlineto
      0 exch rlineto 0 rlineto closepath } bind def
/S { stroke } bind def
/f { fill } bind def
/f* { eofill } bind def
/n { newpath } bind def
/W { clip } bind def
/W* { eoclip } bind def
/BT { } bind def
/ET { } bind def
/pdfmark where { pop globaldict /?pdfmark /exec load put }
    { globaldict begin /?pdfmark /pop load def /pdfmark
    /cleartomark load def end } ifelse
/BDC { mark 3 1 roll /BDC pdfmark } bind def
/EMC { mark /EMC pdfmark } bind def
/cairo_store_point { /cairo_point_y exch def /cairo_point_x exch def } def
/Tj { show currentpoint cairo_store_point } bind def
/TJ {
  {
    dup
    type /stringtype eq
    { show } { -0.001 mul 0 cairo_font_matrix dtransform rmoveto } ifelse
  } forall
  currentpoint cairo_store_point
} bind def
/cairo_selectfont { cairo_font_matrix aload pop pop pop 0 0 6 array astore
    cairo_font exch selectfont cairo_point_x cairo_point_y moveto } bind def
/Tf { pop /cairo_font exch def /cairo_font_matrix where
      { pop cairo_selectfont } if } bind def
/Td { matrix translate cairo_font_matrix matrix concatmatrix dup
      /cairo_font_matrix exch def dup 4 get exch 5 get cairo_store_point
      /cairo_font where { pop cairo_selectfont } if } bind def
/Tm { 2 copy 8 2 roll 6 array astore /cairo_font_matrix exch def
      cairo_store_point /cairo_font where { pop cairo_selectfont } if } bind def
/g { setgray } bind def
/rg { setrgbcolor } bind def
/d1 { setcachedevice } bind def
%%EndProlog
%%Page: 1 1
%%BeginPageSetup
%%PageBoundingBox: 0 -1 282 165
%%EndPageSetup
q 0 -1 282 166 rectclip q
0 164.646 282 -165 re W n
0 g
229.184 0.314 m 229.004 0.826 228.469 3.044 227.996 5.248 c 223.441 
26.361 213.406 49.513 204.285 59.939 c 202.379 62.119 200.816 64.087 
200.816 64.31 c 200.816 64.537 202.707 65.341 205.016 66.107 c 210.047 
67.771 222.066 73.396 227.59 76.673 c 231.562 79.029 l 233.316 73.49 l 
235.777 65.74 237.457 63.595 248.906 53.619 c 262.324 41.931 272.246 
30.607 276.676 21.923 c 278.754 17.849 278.648 17.736 268.168 12.501 c 
256.117 6.486 229.898 -1.713 229.184 0.314 c h
172.703 36.916 m 171.68 38.455 171.914 38.9 175.723 42.716 c 180.152 
47.146 182.02 51.677 181.445 56.591 c 181.113 59.443 181.242 59.541 
186.617 60.494 c 190.449 61.603 189.617 60.123 189.617 56.693 c 189.617 
50.759 186.734 45.255 180.719 39.685 c 178.082 37.244 175.449 35.248 
174.867 35.248 c 174.285 35.248 173.312 35.998 172.703 36.916 c h
142.414 63.349 m 122.094 64.564 99.98 70.978 77.973 82.033 c 67.164 
87.462 48.816 98.876 48.816 100.173 c 48.816 100.517 48.277 100.587 
47.617 100.337 c 46.617 99.951 46.414 97.693 46.414 86.884 c 46.414 
75.314 46.254 73.748 44.953 72.572 c 43.133 70.923 42.098 70.9 40.785 
72.482 c 40.027 73.396 39.797 77.212 39.902 87.083 c 39.98 94.431 
39.734 100.919 39.352 101.498 c 38.906 102.177 37.402 102.458 35.137 
102.298 c 31.617 102.044 l 31.391 93.123 l 31.137 83.13 30.383 81.474 
26.82 83.099 c 24.941 83.955 24.859 84.326 24.641 93.017 c 24.414 
102.044 l 18.664 102.279 l 13.684 102.482 12.801 102.31 12.094 100.99 c 
10.746 98.474 6.867 97.263 3.984 98.458 c -0.352 100.255 -1.301 104.826 
1.891 108.537 c 4.371 111.423 7.82 111.427 11.242 108.544 c 13.562 
106.595 14.348 106.4 19.117 106.611 c 24.414 106.845 l 24.613 114.447 l 
24.723 118.626 24.992 122.818 25.207 123.759 c 25.695 125.88 27.645 
126.701 29.648 125.63 c 30.977 124.919 31.191 123.697 31.391 115.833 c 
31.617 106.845 l 35.137 106.595 l 37.406 106.431 38.902 106.716 39.344 
107.396 c 39.723 107.974 39.977 114.501 39.906 121.9 c 39.801 133.052 
39.988 135.564 41.008 136.583 c 42.609 138.185 45.301 137.33 45.918 
135.021 c 46.18 134.044 46.398 127.576 46.406 120.646 c 46.414 110.384 
46.625 108.044 47.535 108.044 c 48.152 108.044 52.562 110.498 57.336 
113.49 c 87.266 132.259 119.141 142.447 147.945 142.447 c 167.215 
142.447 195.254 135.83 215.492 126.509 c 223.742 122.708 235.867 
115.685 240.324 112.13 c 242.035 110.763 243.789 109.646 244.219 
109.646 c 245.977 109.646 258.926 123.169 270.902 137.525 c 272.594 
139.548 l 276.703 136.529 l 278.965 134.869 280.816 133.373 280.816 
133.208 c 280.816 132.302 267.414 116.998 260.996 110.572 c 256.891 
106.462 253.641 102.794 253.773 102.419 c 253.906 102.041 257.367 
98.638 261.465 94.849 c 270.184 86.791 281.617 74.521 281.617 73.224 c 
281.617 72.271 275.031 67.216 273.887 67.287 c 273.516 67.31 271.414 
69.525 269.215 72.205 c 264.641 77.779 247.992 93.681 245.586 94.775 c 
244.336 95.345 243.23 94.947 240.598 92.99 c 220.77 78.228 202.52 69.83 
181.191 65.654 c 170.875 63.63 154.23 62.642 142.414 63.349 c h
171.617 74.58 m 172.242 75.205 172.336 128.486 171.711 129.49 c 171.266 
130.216 168.441 130.611 155.926 131.701 c 150.883 132.142 150.609 
132.076 150.137 130.306 c 149.422 127.638 149.496 74.833 150.215 74.099 
c 150.898 73.4 170.887 73.849 171.617 74.58 c h
157.348 98.181 m 156.688 98.841 156.672 103.029 157.32 105.447 c 
157.738 107.001 158.336 107.248 161.711 107.248 c 165.617 107.248 l 
165.617 97.646 l 161.75 97.646 l 159.621 97.646 157.641 97.888 157.348 
98.181 c h
140.816 102.892 m 140.816 131.333 l 137.016 131.091 l 133.215 130.845 l 
132.973 126.646 l 132.758 122.861 132.551 122.447 130.883 122.447 c 
127.836 122.447 124.957 119.513 123.633 115.056 c 122.207 110.255 
122.02 97.978 123.277 92.103 c 124.316 87.271 127.703 83.248 130.738 
83.248 c 132.688 83.248 132.816 83.009 132.816 79.38 c 132.816 77.251 
133.055 75.275 133.348 74.978 c 133.641 74.685 135.441 74.447 137.348 
74.447 c 140.816 74.447 l h
191.414 78.962 m 198.414 81.099 l 198.414 122.978 l 195.484 123.876 l 
191.746 125.025 191.215 124.646 191.215 120.83 c 191.215 117.708 l 
180.738 118.685 l 181.215 107.646 l 191.215 107.169 l 191.215 97.646 l 
180.816 97.646 l 180.816 87.248 l 180.816 75.005 180.148 75.525 191.414 
78.962 c h
120.016 78.81 m 120.016 79.451 119.137 81.271 118.062 82.853 c 115.348 
86.853 114.066 93.404 114.078 103.248 c 114.09 113.099 115.27 118.556 
118.484 123.626 c 119.766 125.646 120.816 127.47 120.816 127.673 c 
120.816 128.462 116.324 127.99 111.855 126.736 c 108.52 125.802 106.512 
124.654 104.805 122.708 c 101.508 118.955 101.609 115.31 105.211 
108.294 c 109.562 99.818 108.918 93.072 103.215 87.369 c 99.809 83.962 
100.445 83.33 110.414 80.169 c 119.285 77.361 120.016 77.259 120.016 
78.81 c h
215.02 88.833 m 224.84 94.185 234.414 100.837 234.414 102.31 c 234.414 
103.146 231.879 105.259 227.816 107.802 c 219.484 113.013 209.523 
118.419 208.215 118.435 c 207.449 118.443 207.215 114.638 207.215 
102.044 c 207.215 89.455 207.449 85.65 208.215 85.658 c 208.766 85.666 
211.828 87.091 215.02 88.833 c h
94.723 89.681 m 97.344 92.794 98.609 97.404 97.695 100.49 c 97.312 
101.787 96.004 104.74 94.789 107.056 c 93.574 109.369 92.406 113.06 
92.195 115.255 c 91.984 117.451 91.406 119.248 90.914 119.244 c 88.117 
119.244 63.215 105.283 63.215 103.716 c 63.215 103.134 64.746 101.634 
66.617 100.38 c 70.855 97.541 90.484 87.298 91.746 87.267 c 92.254 
87.255 93.598 88.341 94.723 89.681 c h
226.016 128.123 m 213.551 134.974 195.348 141.466 179.215 144.81 c 
175.215 145.638 174.613 146.056 172.574 149.4 c 171.344 151.419 170.441 
153.833 170.574 154.759 c 170.902 157.056 177.965 160.439 185.641 
161.978 c 199.914 164.845 232.551 165.47 266.215 163.521 c 275.215 
163.001 l 275.215 160.337 l 275.215 158.212 274.852 157.607 273.414 
157.33 c 253.035 153.416 240.016 147.544 234.695 139.873 c 232.695 
136.99 232.414 135.869 232.414 130.72 c 232.414 127.49 232.234 124.892 
232.016 124.947 c 231.797 125.001 229.098 126.427 226.016 128.123 c h
226.016 128.123 m f
Q Q
showpage
%%Trailer
count op_count sub {pop} repeat
countdictstack dict_count sub {end} repeat
cairo_eps_state restore
%%EOF
